-------------------------------------------------------------------------------
Test set: mappe.del1.hospital.HospitalTest
-------------------------------------------------------------------------------
Tests run: 7, Failures: 0, Errors: 0, Skipped: 0, Time elapsed: 0.051 s - in mappe.del1.hospital.HospitalTest
