C:\Users\nicro\IdeaProjects\HospitalProgram\src\main\java\mappe\del1\hospital\HospitalClient.java
C:\Users\nicro\IdeaProjects\HospitalProgram\src\main\java\mappe\del1\hospital\GeneralPractitioner.java
C:\Users\nicro\IdeaProjects\HospitalProgram\src\main\java\mappe\del1\hospital\HospitalTestData.java
C:\Users\nicro\IdeaProjects\HospitalProgram\src\main\java\mappe\del1\hospital\RemoveException.java
C:\Users\nicro\IdeaProjects\HospitalProgram\src\main\java\mappe\del1\hospital\Department.java
C:\Users\nicro\IdeaProjects\HospitalProgram\src\main\java\mappe\del1\hospital\Nurse.java
C:\Users\nicro\IdeaProjects\HospitalProgram\src\main\java\mappe\del1\hospital\Person.java
C:\Users\nicro\IdeaProjects\HospitalProgram\src\main\java\mappe\del1\hospital\Hospital.java
C:\Users\nicro\IdeaProjects\HospitalProgram\src\main\java\mappe\del1\hospital\Diagnosable.java
C:\Users\nicro\IdeaProjects\HospitalProgram\src\main\java\mappe\del1\hospital\Employee.java
C:\Users\nicro\IdeaProjects\HospitalProgram\src\main\java\mappe\del1\hospital\Patient.java
C:\Users\nicro\IdeaProjects\HospitalProgram\src\main\java\mappe\del1\hospital\Doctor.java
C:\Users\nicro\IdeaProjects\HospitalProgram\src\main\java\mappe\del1\hospital\Surgeon.java
