mappe\del1\hospital\HospitalTest$removePersonFromDepartmentTests.class
mappe\del1\hospital\HospitalTest$addingToDepartment.class
mappe\del1\hospital\HospitalTest.class
mappe\del1\hospital\HospitalTest$doesToStringWork.class
